Data Transformation II
…
Group by multiple variables

# Average delay by month AND carrier
flights |>
  group_by(month, carrier) |>
  summarize(
    avg_delay = mean(dep_delay, na.rm = TRUE),
    n_flights = n()
  )

# A tibble: 185 × 4
# Groups:   month [12]
   month carrier avg_delay n_flights
   <int> <chr>       <dbl>     <int>
 1     1 9E          16.9       1573
 2     1 AA           6.93      2794
 3     1 AS           7.35        62
 4     1 B6           9.49      4427
 5     1 DL           3.85      3690
 6     1 EV          24.2       4171
 7     1 F9          10           59
 8     1 FL           1.97       328
 9     1 HA          54.4         31
10     1 MQ           6.49      2271
# ℹ 175 more rows
…
Same result, less typing!

count() with multiple variables

flights |>
  count(carrier, origin)

# A tibble: 35 × 3
   carrier origin     n
   <chr>   <chr>  <int>
 1 9E      EWR     1268
 2 9E      JFK    14651
 3 9E      LGA     2541
 4 AA      EWR     3487
 5 AA      JFK    13783
 6 AA      LGA    15459
 7 AS      EWR      714
 8 B6      EWR     6557
 9 B6      JFK    42076
10 B6      LGA     6002
# ℹ 25 more rows
…
# Add a column for mean delay PER CARRIER
flights |>
  group_by(carrier) |>
  mutate(
    carrier_mean_delay = mean(arr_delay, na.rm = TRUE),
    delay_vs_carrier = arr_delay - carrier_mean_delay
  ) |>
  select(carrier, arr_delay, carrier_mean_delay, delay_vs_carrier)

group_by() with mutate()

group_by() also affects mutate() and filter():

# A tibble: 336,776 × 4
# Groups:   carrier [16]
   carrier arr_delay carrier_mean_delay delay_vs_carrier
   <chr>       <dbl>              <dbl>            <dbl>
 1 UA             11              3.56              7.44
 2 UA             20              3.56             16.4 
 3 AA             33              0.364            32.6 
 4 B6            -18              9.46            -27.5 
 5 DL            -25              1.64            -26.6 
 6 UA             12              3.56              8.44
 7 B6             19              9.46              9.54
 8 EV            -14             15.8             -29.8 
 9 B6             -8              9.46            -17.5 
10 AA              8              0.364             7.64
# ℹ 336,766 more rows

Filtering within groups

# Find the 2 most delayed flights per month
flights |>
  group_by(month) |>
  filter(!is.na(arr_delay)) |>
  slice_max(arr_delay, n = 2) |>
  select(month, carrier, arr_delay)

# A tibble: 24 × 3
# Groups:   month [12]
   month carrier arr_delay
   <int> <chr>       <dbl>
 1     1 HA           1272
 2     1 MQ           1109
 3     2 F9            834
 4     2 DL            773
 5     3 DL            915
 6     3 DL            784
 7     4 DL            931
 8     4 DL            821
 9     5 MQ            875
10     5 AA            852
# ℹ 14 more rows
…
All work within groups when preceded by group_by().

ungroup()

Sometimes you need to remove grouping:

flights |>
  group_by(carrier) |>
  mutate(carrier_mean = mean(arr_delay, na.rm = TRUE)) |>
  ungroup() |>                              # Remove grouping
  mutate(grand_mean = mean(arr_delay, na.rm = TRUE)) |>  # Now uses ALL flights
  select(carrier, arr_delay, carrier_mean, grand_mean)

# A tibble: 336,776 × 4
   carrier arr_delay carrier_mean grand_mean
   <chr>       <dbl>        <dbl>      <dbl>
 1 UA             11        3.56        6.90
 2 UA             20        3.56        6.90
 3 AA             33        0.364       6.90
 4 B6            -18        9.46        6.90
 5 DL            -25        1.64        6.90
 6 UA             12        3.56        6.90
 7 B6             19        9.46        6.90
 8 EV            -14       15.8         6.90
 9 B6             -8        9.46        6.90
10 AA              8        0.364       6.90
# ℹ 336,766 more rows
…
Examine the data

experiment

# A tibble: 1,200 × 5
   participant_id condition trial reaction_time accuracy
            <int> <chr>     <int>         <dbl>    <int>
 1              1 control       1          637.        1
 2              1 control       2          444.        1
 3              1 control       3          536.        1
 4              1 control       4          563.        1
 5              1 control       5          540.        1
 6              1 control       6          489.        0
 7              1 control       7          651.        1
 8              1 control       8          491.        1
 9              1 control       9          702.        1
10              1 control      10          494.        1
# ℹ 1,190 more rows
…
# First, summarize BY PARTICIPANT
participant_summaries <- experiment |>
  group_by(participant_id, condition) |>
  summarize(
    mean_rt = mean(reaction_time),
    accuracy = mean(accuracy) * 100,
    n_trials = n(),
    .groups = "drop"
  )

participant_summaries

Participant-level summaries

# A tibble: 120 × 5
   participant_id condition mean_rt accuracy n_trials
            <int> <chr>       <dbl>    <dbl>    <int>
 1              1 control      555.       90       10
 2              1 treatment    454.       90       10
 3              2 control      482.       80       10
 4              2 treatment    434.       70       10
 5              3 control      498.       80       10
 6              3 treatment    472.      100       10
 7              4 control      554.       90       10
 8              4 treatment    448.       90       10
 9              5 control      525.      100       10
10              5 treatment    461.       80       10
# ℹ 110 more rows
…
