EDA — Variation
…
Investigating outliers programmatically

# Find unusually old or young participants
bfi |>
  filter(age > 60) |>
  select(age, gender, education)

# A tibble: 22 × 3
     age gender education
   <int>  <int>     <int>
 1    68      1         5
 2    64      2         5
 3    74      1         5
 4    63      2         3
 5    62      1         2
 6    86      2         2
 7    61      1         2
 8    67      1         5
 9    67      1         5
10    63      1         5
# ℹ 12 more rows
…
Before we move on

📤 Upload your code to Canvas for participation credit. Paste what you have into today’s in-class submission — it doesn’t need to work perfectly.

Missing data — a first look

Missing data is everywhere

# How much missing data do we have?
bfi |>
  summarize(across(everything(), ~ sum(is.na(.)))) |>
  pivot_longer(everything(), names_to = "variable", values_to = "n_missing") |>
  arrange(desc(n_missing))

# A tibble: 28 × 2
   variable  n_missing
   <chr>         <int>
 1 education       223
 2 N4               36
 3 N5               29
 4 O3               28
 5 A2               27
 6 A3               26
 7 C4               26
 8 E3               25
 9 C2               24
10 E1               23
# ℹ 18 more rows
…
