Data Transformation I
…
carrier — airline code

origin, dest — airport codes

air_time, distance — in minutes and miles

filter()

filter() picks rows

# All flights on January 1st
filter(flights, month == 1, day == 1)

# A tibble: 842 × 19
    year month   day dep_time sched_dep_time dep_delay arr_time sched_arr_time
   <int> <int> <int>    <int>          <int>     <dbl>    <int>          <int>
 1  2013     1     1      517            515         2      830            819
 2  2013     1     1      533            529         4      850            830
 3  2013     1     1      542            540         2      923            850
 4  2013     1     1      544            545        -1     1004           1022
 5  2013     1     1      554            600        -6      812            837
 6  2013     1     1      554            558        -4      740            728
 7  2013     1     1      555            600        -5      913            854
 8  2013     1     1      557            600        -3      709            723
 9  2013     1     1      557            600        -3      838            846
10  2013     1     1      558            600        -2      753            745
# ℹ 832 more rows
# ℹ 11 more variables: arr_delay <dbl>, carrier <chr>, flight <int>,
#   tailnum <chr>, origin <chr>, dest <chr>, air_time <dbl>, distance <dbl>,
#   hour <dbl>, minute <dbl>, time_hour <dttm>
…
&
AND (both true)

|
OR (either true)

!
NOT (negation)

Using OR

# Flights in November OR December
filter(flights, month == 11 | month == 12)

# A tibble: 55,403 × 19
    year month   day dep_time sched_dep_time dep_delay arr_time sched_arr_time
   <int> <int> <int>    <int>          <int>     <dbl>    <int>          <int>
 1  2013    11     1        5           2359         6      352            345
 2  2013    11     1       35           2250       105      123           2356
 3  2013    11     1      455            500        -5      641            651
 4  2013    11     1      539            545        -6      856            827
 5  2013    11     1      542            545        -3      831            855
 6  2013    11     1      549            600       -11      912            923
 7  2013    11     1      550            600       -10      705            659
 8  2013    11     1      554            600        -6      659            701
 9  2013    11     1      554            600        -6      826            827
10  2013    11     1      554            600        -6      749            751
# ℹ 55,393 more rows
# ℹ 11 more variables: arr_delay <dbl>, carrier <chr>, flight <int>,
#   tailnum <chr>, origin <chr>, dest <chr>, air_time <dbl>, distance <dbl>,
#   hour <dbl>, minute <dbl>, time_hour <dttm>

A useful shortcut: %in%

# Same as above, but cleaner
filter(flights, month %in% c(11, 12))

# A tibble: 55,403 × 19
    year month   day dep_time sched_dep_time dep_delay arr_time sched_arr_time
   <int> <int> <int>    <int>          <int>     <dbl>    <int>          <int>
 1  2013    11     1        5           2359         6      352            345
 2  2013    11     1       35           2250       105      123           2356
 3  2013    11     1      455            500        -5      641            651
 4  2013    11     1      539            545        -6      856            827
 5  2013    11     1      542            545        -3      831            855
 6  2013    11     1      549            600       -11      912            923
 7  2013    11     1      550            600       -10      705            659
 8  2013    11     1      554            600        -6      659            701
 9  2013    11     1      554            600        -6      826            827
10  2013    11     1      554            600        -6      749            751
# ℹ 55,393 more rows
# ℹ 11 more variables: arr_delay <dbl>, carrier <chr>, flight <int>,
#   tailnum <chr>, origin <chr>, dest <chr>, air_time <dbl>, distance <dbl>,
#   hour <dbl>, minute <dbl>, time_hour <dttm>
…
You’ll need filter() with multiple conditions. Think about which operators you need.

Before we move on

📤 Upload your code to Canvas for participation credit. Paste what you have into today’s in-class submission — it doesn’t need to work perfectly.

arrange()

arrange() reorders rows

# Sort by departure delay (smallest first)
arrange(flights, dep_delay)

# A tibble: 336,776 × 19
    year month   day dep_time sched_dep_time dep_delay arr_time sched_arr_time
   <int> <int> <int>    <int>          <int>     <dbl>    <int>          <int>
 1  2013    12     7     2040           2123       -43       40           2352
 2  2013     2     3     2022           2055       -33     2240           2338
 3  2013    11    10     1408           1440       -32     1549           1559
 4  2013     1    11     1900           1930       -30     2233           2243
 5  2013     1    29     1703           1730       -27     1947           1957
 6  2013     8     9      729            755       -26     1002            955
 7  2013    10    23     1907           1932       -25     2143           2143
 8  2013     3    30     2030           2055       -25     2213           2250
 9  2013     3     2     1431           1455       -24     1601           1631
10  2013     5     5      934            958       -24     1225           1309
# ℹ 336,766 more rows
# ℹ 11 more variables: arr_delay <dbl>, carrier <chr>, flight <int>,
#   tailnum <chr>, origin <chr>, dest <chr>, air_time <dbl>, distance <dbl>,
#   hour <dbl>, minute <dbl>, time_hour <dttm>

Descending order

# Most delayed flights first
arrange(flights, desc(dep_delay))

# A tibble: 336,776 × 19
    year month   day dep_time sched_dep_time dep_delay arr_time sched_arr_time
   <int> <int> <int>    <int>          <int>     <dbl>    <int>          <int>
 1  2013     1     9      641            900      1301     1242           1530
 2  2013     6    15     1432           1935      1137     1607           2120
 3  2013     1    10     1121           1635      1126     1239           1810
 4  2013     9    20     1139           1845      1014     1457           2210
 5  2013     7    22      845           1600      1005     1044           1815
 6  2013     4    10     1100           1900       960     1342           2211
 7  2013     3    17     2321            810       911      135           1020
 8  2013     6    27      959           1900       899     1236           2226
 9  2013     7    22     2257            759       898      121           1026
10  2013    12     5      756           1700       896     1058           2020
# ℹ 336,766 more rows
# ℹ 11 more variables: arr_delay <dbl>, carrier <chr>, flight <int>,
#   tailnum <chr>, origin <chr>, dest <chr>, air_time <dbl>, distance <dbl>,
#   hour <dbl>, minute <dbl>, time_hour <dttm>

Multiple sort columns

# Sort by month, then by day, then by departure time
arrange(flights, month, day, dep_time)

# A tibble: 336,776 × 19
    year month   day dep_time sched_dep_time dep_delay arr_time sched_arr_time
   <int> <int> <int>    <int>          <int>     <dbl>    <int>          <int>
 1  2013     1     1      517            515         2      830            819
 2  2013     1     1      533            529         4      850            830
 3  2013     1     1      542            540         2      923            850
 4  2013     1     1      544            545        -1     1004           1022
 5  2013     1     1      554            600        -6      812            837
 6  2013     1     1      554            558        -4      740            728
 7  2013     1     1      555            600        -5      913            854
 8  2013     1     1      557            600        -3      709            723
 9  2013     1     1      557            600        -3      838            846
10  2013     1     1      558            600        -2      753            745
# ℹ 336,766 more rows
# ℹ 11 more variables: arr_delay <dbl>, carrier <chr>, flight <int>,
#   tailnum <chr>, origin <chr>, dest <chr>, air_time <dbl>, distance <dbl>,
#   hour <dbl>, minute <dbl>, time_hour <dttm>
…
mutate()
What new columns should I create?

We’ve done the first two. Now let’s pick our columns.

select()

select() picks columns

# Just these three columns
select(flights, year, month, day)

# A tibble: 336,776 × 3
    year month   day
   <int> <int> <int>
 1  2013     1     1
 2  2013     1     1
 3  2013     1     1
 4  2013     1     1
 5  2013     1     1
 6  2013     1     1
 7  2013     1     1
 8  2013     1     1
 9  2013     1     1
10  2013     1     1
# ℹ 336,766 more rows

Select a range

# All columns from year to day
select(flights, year:day)

# A tibble: 336,776 × 3
    year month   day
   <int> <int> <int>
 1  2013     1     1
 2  2013     1     1
 3  2013     1     1
 4  2013     1     1
 5  2013     1     1
 6  2013     1     1
 7  2013     1     1
 8  2013     1     1
 9  2013     1     1
10  2013     1     1
# ℹ 336,766 more rows
…
ends_with("x")
Columns ending with “x”

contains("x")
Columns containing “x”

everything()
All remaining columns

Using select helpers

# All delay-related columns
select(flights, contains("delay"))

# A tibble: 336,776 × 2
   dep_delay arr_delay
       <dbl>     <dbl>
 1         2        11
 2         4        20
 3         2        33
 4        -1       -18
 5        -6       -25
 6        -4        12
 7        -5        19
 8        -3       -14
 9        -3        -8
10        -2         8
# ℹ 336,766 more rows

Using select helpers

# All time columns
select(flights, ends_with("time"))

# A tibble: 336,776 × 5
   dep_time sched_dep_time arr_time sched_arr_time air_time
      <int>          <int>    <int>          <int>    <dbl>
 1      517            515      830            819      227
 2      533            529      850            830      227
 3      542            540      923            850      160
 4      544            545     1004           1022      183
 5      554            600      812            837      116
 6      554            558      740            728      150
 7      555            600      913            854      158
 8      557            600      709            723       53
 9      557            600      838            846      140
10      558            600      753            745      138
# ℹ 336,766 more rows

Reorder columns

# Move air_time and distance to the front
select(flights, air_time, distance, everything())

# A tibble: 336,776 × 19
   air_time distance  year month   day dep_time sched_dep_time dep_delay
      <dbl>    <dbl> <int> <int> <int>    <int>          <int>     <dbl>
 1      227     1400  2013     1     1      517            515         2
 2      227     1416  2013     1     1      533            529         4
 3      160     1089  2013     1     1      542            540         2
 4      183     1576  2013     1     1      544            545        -1
 5      116      762  2013     1     1      554            600        -6
 6      150      719  2013     1     1      554            558        -4
 7      158     1065  2013     1     1      555            600        -5
 8       53      229  2013     1     1      557            600        -3
 9      140      944  2013     1     1      557            600        -3
10      138      733  2013     1     1      558            600        -2
# ℹ 336,766 more rows
# ℹ 11 more variables: arr_time <int>, sched_arr_time <int>, arr_delay <dbl>,
#   carrier <chr>, flight <int>, tailnum <chr>, origin <chr>, dest <chr>,
#   hour <dbl>, minute <dbl>, time_hour <dttm>

Exclude columns

Use - to remove columns:

# Remove year column
select(flights, -year)

# A tibble: 336,776 × 18
   month   day dep_time sched_dep_time dep_delay arr_time sched_arr_time
   <int> <int>    <int>          <int>     <dbl>    <int>          <int>
 1     1     1      517            515         2      830            819
 2     1     1      533            529         4      850            830
 3     1     1      542            540         2      923            850
 4     1     1      544            545        -1     1004           1022
 5     1     1      554            600        -6      812            837
 6     1     1      554            558        -4      740            728
 7     1     1      555            600        -5      913            854
 8     1     1      557            600        -3      709            723
 9     1     1      557            600        -3      838            846
10     1     1      558            600        -2      753            745
# ℹ 336,766 more rows
# ℹ 11 more variables: arr_delay <dbl>, carrier <chr>, flight <int>,
#   tailnum <chr>, origin <chr>, dest <chr>, air_time <dbl>, distance <dbl>,
#   hour <dbl>, minute <dbl>, time_hour <dttm>
…
# verb(data, what_you_want)
filter(flights, month == 1)
arrange(flights, dep_delay)
select(flights, year, month, day)

Data goes first. Then you describe what you want. This consistency is by design.

mutate()

mutate() creates new columns

# Calculate total delay
mutate(flights, total_delay = dep_delay + arr_delay)

# A tibble: 336,776 × 20
    year month   day dep_time sched_dep_time dep_delay arr_time sched_arr_time
   <int> <int> <int>    <int>          <int>     <dbl>    <int>          <int>
 1  2013     1     1      517            515         2      830            819
 2  2013     1     1      533            529         4      850            830
 3  2013     1     1      542            540         2      923            850
 4  2013     1     1      544            545        -1     1004           1022
 5  2013     1     1      554            600        -6      812            837
 6  2013     1     1      554            558        -4      740            728
 7  2013     1     1      555            600        -5      913            854
 8  2013     1     1      557            600        -3      709            723
 9  2013     1     1      557            600        -3      838            846
10  2013     1     1      558            600        -2      753            745
# ℹ 336,766 more rows
# ℹ 12 more variables: arr_delay <dbl>, carrier <chr>, flight <int>,
#   tailnum <chr>, origin <chr>, dest <chr>, air_time <dbl>, distance <dbl>,
#   hour <dbl>, minute <dbl>, time_hour <dttm>, total_delay <dbl>

Multiple new columns

mutate(flights,
       # Create new variables
       total_delay = dep_delay + arr_delay,
       speed = distance / air_time * 60,  # mph
       # Can reference columns you just created!
       delay_per_mile = total_delay / distance
)

# A tibble: 336,776 × 22
    year month   day dep_time sched_dep_time dep_delay arr_time sched_arr_time
   <int> <int> <int>    <int>          <int>     <dbl>    <int>          <int>
 1  2013     1     1      517            515         2      830            819
 2  2013     1     1      533            529         4      850            830
 3  2013     1     1      542            540         2      923            850
 4  2013     1     1      544            545        -1     1004           1022
 5  2013     1     1      554            600        -6      812            837
 6  2013     1     1      554            558        -4      740            728
 7  2013     1     1      555            600        -5      913            854
 8  2013     1     1      557            600        -3      709            723
 9  2013     1     1      557            600        -3      838            846
10  2013     1     1      558            600        -2      753            745
# ℹ 336,766 more rows
# ℹ 14 more variables: arr_delay <dbl>, carrier <chr>, flight <int>,
#   tailnum <chr>, origin <chr>, dest <chr>, air_time <dbl>, distance <dbl>,
#   hour <dbl>, minute <dbl>, time_hour <dttm>, total_delay <dbl>, speed <dbl>,
#   delay_per_mile <dbl>

mutate() keeps all columns

mutate() adds new columns while keeping existing ones.

Use transmute() to only keep new columns:

transmute(flights,
          total_delay = dep_delay + arr_delay,
          speed = distance / air_time * 60
)

# A tibble: 336,776 × 2
   total_delay speed
         <dbl> <dbl>
 1          13  370.
 2          24  374.
 3          35  408.
 4         -19  517.
 5         -31  394.
 6           8  288.
 7          14  404.
 8         -17  259.
 9         -11  405.
10           6  319.
# ℹ 336,766 more rows
…
Works, but clutters your environment with objects.

The pipe: |>

The pipe takes the result of one function and passes it as the first argument to the next:

# Same result, much cleaner!
flights |>
  filter(month == 1) |>
  select(dep_time, dep_delay) |>
  arrange(dep_delay)

# A tibble: 27,004 × 2
   dep_time dep_delay
      <int>     <dbl>
 1     1900       -30
 2     1703       -27
 3     1354       -22
 4     2137       -22
 5      704       -21
 6     2050       -20
 7     2134       -20
 8     2050       -20
 9     2140       -19
10     1947       -18
# ℹ 26,994 more rows
…
Putting it together

A complete workflow

# Which airlines have the longest delays in summer?
flights |>
  filter(month %in% c(6, 7, 8)) |>           # Summer months
  filter(!is.na(arr_delay)) |>               # Remove NAs
  mutate(delay_hours = arr_delay / 60) |>    # Convert to hours
  select(carrier, delay_hours) |>            # Keep relevant columns
  arrange(desc(delay_hours))                 # Longest delays first

A complete workflow

# A tibble: 84,124 × 2
   carrier delay_hours
   <chr>         <dbl>
 1 MQ             18.8
 2 MQ             16.5
 3 DL             14.9
 4 DL             14.2
 5 AA             13.4
 6 DL             13  
 7 DL             12.8
 8 VX             11.3
 9 AA             10.8
10 VX             10.5
# ℹ 84,114 more rows
…
