Practice & Review
…
Haven’t created the object yet

Forgot to load the package

Object is in a different environment

Fix: Check spelling, run the code that creates the object

Error 2: “Could not find function”

therapy_data |>
  select(participant_id, condition)  # Works

# A tibble: 100 × 2
   participant_id condition  
            <int> <chr>      
 1              1 Mindfulness
 2              2 CBT        
 3              3 Control    
 4              4 CBT        
 5              5 CBT        
 6              6 CBT        
 7              7 Mindfulness
 8              8 CBT        
 9              9 CBT        
10             10 Control    
# ℹ 90 more rows
…
Typo in function name

Package not loaded (library())

Wrong package (e.g., filter() exists in multiple packages)

Fix: Check spelling, load the right package

Error 3: “Unexpected symbol”

therapy_data |>
  filter(condition == "CBT")

# A tibble: 31 × 7
   participant_id condition   age gender     depression_baseline depression_post
            <int> <chr>     <int> <chr>                    <dbl>           <dbl>
 1              2 CBT          48 Non-binary               28.5             23.7
 2              4 CBT          64 Female                   24.3             13.3
 3              5 CBT          23 Male                     21.1             16.8
 4              6 CBT          65 Male                     21.9             14.4
 5              8 CBT          42 Female                    8.95            20.8
 6              9 CBT          27 Male                     16.7             24.8
 7             20 CBT          43 Female                   17.6             19.4
 8             23 CBT          47 Non-binary               32.3             16.8
 9             25 CBT          41 Male                     19.3             14.7
10             30 CBT          49 Male                     20.0             22.5
# ℹ 21 more rows
# ℹ 1 more variable: completed_followup <lgl>
…
